%TF.GenerationSoftware,KiCad,Pcbnew,(5.1.9)-1*%
%TF.CreationDate,2021-01-13T22:07:34+01:00*%
%TF.ProjectId,VeluxBoard,56656c75-7842-46f6-9172-642e6b696361,1*%
%TF.SameCoordinates,Original*%
%TF.FileFunction,Profile,NP*%
%FSLAX46Y46*%
G04 Gerber Fmt 4.6, Leading zero omitted, Abs format (unit mm)*
G04 Created by KiCad (PCBNEW (5.1.9)-1) date 2021-01-13 22:07:34*
%MOMM*%
%LPD*%
G01*
G04 APERTURE LIST*
%TA.AperFunction,Profile*%
%ADD10C,0.050000*%
%TD*%
G04 APERTURE END LIST*
D10*
X140081000Y-47625000D02*
X140081000Y-112572800D01*
X133197600Y-47117000D02*
X139573000Y-47117000D01*
X133197600Y-38735000D02*
X133197600Y-47117000D01*
X45745400Y-38227000D02*
X132689600Y-38227000D01*
X45237400Y-47117000D02*
X45237400Y-38735000D01*
X38862000Y-47117000D02*
X45237400Y-47117000D01*
X38354000Y-112572800D02*
X38354000Y-47625000D01*
X38862000Y-113080800D02*
X45237400Y-113080800D01*
X45237400Y-121412000D02*
X45237400Y-113080800D01*
X132689600Y-121920000D02*
X45745400Y-121920000D01*
X133197600Y-113080800D02*
X133197600Y-121412000D01*
X133197600Y-113080800D02*
X139573000Y-113080800D01*
X45237400Y-38735000D02*
G75*
G02*
X45745400Y-38227000I508000J0D01*
G01*
X38354000Y-47625000D02*
G75*
G02*
X38862000Y-47117000I508000J0D01*
G01*
X38862000Y-113080800D02*
G75*
G02*
X38354000Y-112572800I0J508000D01*
G01*
X45745400Y-121920000D02*
G75*
G02*
X45237400Y-121412000I0J508000D01*
G01*
X133197600Y-121412000D02*
G75*
G02*
X132689600Y-121920000I-508000J0D01*
G01*
X140081000Y-112572800D02*
G75*
G02*
X139573000Y-113080800I-508000J0D01*
G01*
X139573000Y-47117000D02*
G75*
G02*
X140081000Y-47625000I0J-508000D01*
G01*
X132689600Y-38227000D02*
G75*
G02*
X133197600Y-38735000I0J-508000D01*
G01*
M02*
